/Users/lijunjie/KadanLAB/ils-video-streaming/recorderondemand/src/main/java/com/ilabservice/darwinrecorder/hlslive/controller/VideoQuery/ManVideoQueryController.java
/Users/lijunjie/KadanLAB/ils-video-streaming/recorderondemand/src/main/java/com/ilabservice/darwinrecorder/hlslive/controller/videodel/ManVideoDeleteController.java
/Users/lijunjie/KadanLAB/ils-video-streaming/recorderondemand/src/main/java/com/ilabservice/darwinrecorder/hlslive/measurements/DarwinMeasurement.java
/Users/lijunjie/KadanLAB/ils-video-streaming/recorderondemand/src/main/java/com/ilabservice/darwinrecorder/hlslive/util/RecorderRedisHandler.java
/Users/lijunjie/KadanLAB/ils-video-streaming/recorderondemand/src/main/java/com/ilabservice/darwinrecorder/hlslive/controller/DateTimeTester.java
/Users/lijunjie/KadanLAB/ils-video-streaming/recorderondemand/src/main/java/com/ilabservice/darwinrecorder/hlslive/config/Swagger2Config.java
/Users/lijunjie/KadanLAB/ils-video-streaming/recorderondemand/src/main/java/com/ilabservice/darwinrecorder/hlslive/controller/MqttTestController.java
/Users/lijunjie/KadanLAB/ils-video-streaming/recorderondemand/src/main/java/com/ilabservice/darwinrecorder/hlslive/controller/VideoQuery/StatController.java
/Users/lijunjie/KadanLAB/ils-video-streaming/recorderondemand/src/main/java/com/ilabservice/darwinrecorder/hlslive/entity/PusherTester.java
/Users/lijunjie/KadanLAB/ils-video-streaming/recorderondemand/src/main/java/com/ilabservice/darwinrecorder/hlslive/repository/VideoRepository.java
/Users/lijunjie/KadanLAB/ils-video-streaming/recorderondemand/src/main/java/com/ilabservice/darwinrecorder/hlslive/controller/videomarker/VideoMarkerController.java
/Users/lijunjie/KadanLAB/ils-video-streaming/recorderondemand/src/main/java/com/ilabservice/darwinrecorder/hlslive/util/FileUtils.java
/Users/lijunjie/KadanLAB/ils-video-streaming/recorderondemand/src/main/java/com/ilabservice/darwinrecorder/hlslive/service/VideoService.java
/Users/lijunjie/KadanLAB/ils-video-streaming/recorderondemand/src/main/java/com/ilabservice/darwinrecorder/hlslive/measurements/RecorderMeasurement.java
/Users/lijunjie/KadanLAB/ils-video-streaming/recorderondemand/src/main/java/com/ilabservice/darwinrecorder/hlslive/config/InfluxDbConfig.java
/Users/lijunjie/KadanLAB/ils-video-streaming/recorderondemand/src/main/java/com/ilabservice/darwinrecorder/hlslive/entity/Stat.java
/Users/lijunjie/KadanLAB/ils-video-streaming/recorderondemand/src/main/java/com/ilabservice/darwinrecorder/hlslive/controller/videodel/VideoDeleteController.java
/Users/lijunjie/KadanLAB/ils-video-streaming/recorderondemand/src/main/java/com/ilabservice/darwinrecorder/hlslive/util/MQTTMessageHandler.java
/Users/lijunjie/KadanLAB/ils-video-streaming/recorderondemand/src/main/java/com/ilabservice/darwinrecorder/hlslive/config/InfluxDbUtils.java
/Users/lijunjie/KadanLAB/ils-video-streaming/recorderondemand/src/main/java/com/ilabservice/darwinrecorder/hlslive/controller/StreamRecorderController.java
/Users/lijunjie/KadanLAB/ils-video-streaming/recorderondemand/src/main/java/com/ilabservice/darwinrecorder/hlslive/config/RedisConfiguration.java
/Users/lijunjie/KadanLAB/ils-video-streaming/recorderondemand/src/main/java/com/ilabservice/darwinrecorder/hlslive/service/impl/EvtVideoServiceImpl.java
/Users/lijunjie/KadanLAB/ils-video-streaming/recorderondemand/src/main/java/com/ilabservice/darwinrecorder/hlslive/repository/EvtVideoRepository.java
/Users/lijunjie/KadanLAB/ils-video-streaming/recorderondemand/src/main/java/com/ilabservice/darwinrecorder/hlslive/entity/TopKFailureStreaming.java
/Users/lijunjie/KadanLAB/ils-video-streaming/recorderondemand/src/main/java/com/ilabservice/darwinrecorder/hlslive/entity/EvtVideo.java
/Users/lijunjie/KadanLAB/ils-video-streaming/recorderondemand/src/main/java/com/ilabservice/darwinrecorder/hlslive/constants/Constants.java
/Users/lijunjie/KadanLAB/ils-video-streaming/recorderondemand/src/main/java/com/ilabservice/darwinrecorder/hlslive/cron/DarwinListener.java
/Users/lijunjie/KadanLAB/ils-video-streaming/recorderondemand/src/main/java/com/ilabservice/darwinrecorder/hlslive/controller/RTMPPusher.java
/Users/lijunjie/KadanLAB/ils-video-streaming/recorderondemand/src/main/java/com/ilabservice/darwinrecorder/hlslive/controller/Cutting.java
/Users/lijunjie/KadanLAB/ils-video-streaming/recorderondemand/src/main/java/com/ilabservice/darwinrecorder/hlslive/controller/videomarker/RecordsMarkerController.java
/Users/lijunjie/KadanLAB/ils-video-streaming/recorderondemand/src/main/java/com/ilabservice/darwinrecorder/hlslive/service/impl/VideoServiceImpl.java
/Users/lijunjie/KadanLAB/ils-video-streaming/recorderondemand/src/main/java/com/ilabservice/darwinrecorder/hlslive/config/MQTTConfiguration.java
/Users/lijunjie/KadanLAB/ils-video-streaming/recorderondemand/src/main/java/com/ilabservice/darwinrecorder/hlslive/measurements/EventMeasurement.java
/Users/lijunjie/KadanLAB/ils-video-streaming/recorderondemand/src/main/java/com/ilabservice/darwinrecorder/hlslive/entity/Video.java
/Users/lijunjie/KadanLAB/ils-video-streaming/recorderondemand/src/main/java/com/ilabservice/darwinrecorder/hlslive/controller/DarwinController.java
/Users/lijunjie/KadanLAB/ils-video-streaming/recorderondemand/src/main/java/com/ilabservice/darwinrecorder/hlslive/util/Handler.java
/Users/lijunjie/KadanLAB/ils-video-streaming/recorderondemand/src/main/java/com/ilabservice/darwinrecorder/hlslive/ffmpeg/PushUtils.java
/Users/lijunjie/KadanLAB/ils-video-streaming/recorderondemand/src/main/java/com/ilabservice/darwinrecorder/hlslive/service/EvtVideoService.java
/Users/lijunjie/KadanLAB/ils-video-streaming/recorderondemand/src/main/java/com/ilabservice/darwinrecorder/hlslive/controller/VideoQuery/VideoQueryController.java
/Users/lijunjie/KadanLAB/ils-video-streaming/recorderondemand/src/main/java/com/ilabservice/darwinrecorder/hlslive/measurements/RtmpMeasurement.java
/Users/lijunjie/KadanLAB/ils-video-streaming/recorderondemand/src/main/java/com/ilabservice/darwinrecorder/hlslive/entity/StatTester.java
/Users/lijunjie/KadanLAB/ils-video-streaming/recorderondemand/src/main/java/com/ilabservice/darwinrecorder/hlslive/ffmpeg/FFMPEGUtils.java
/Users/lijunjie/KadanLAB/ils-video-streaming/recorderondemand/src/main/java/com/ilabservice/darwinrecorder/hlslive/config/SharedSubCallbackRouter.java
/Users/lijunjie/KadanLAB/ils-video-streaming/recorderondemand/src/main/java/com/ilabservice/darwinrecorder/hlslive/HlsliveApplication.java
/Users/lijunjie/KadanLAB/ils-video-streaming/recorderondemand/src/main/java/com/ilabservice/darwinrecorder/hlslive/entity/PusherTester1.java
/Users/lijunjie/KadanLAB/ils-video-streaming/recorderondemand/src/main/java/com/ilabservice/darwinrecorder/hlslive/entity/RetMsg.java
/Users/lijunjie/KadanLAB/ils-video-streaming/recorderondemand/src/main/java/com/ilabservice/darwinrecorder/hlslive/entity/FailureCounts.java
/Users/lijunjie/KadanLAB/ils-video-streaming/recorderondemand/src/main/java/com/ilabservice/darwinrecorder/hlslive/measurements/ErrorMeasurement.java
/Users/lijunjie/KadanLAB/ils-video-streaming/recorderondemand/src/main/java/com/ilabservice/darwinrecorder/hlslive/ffmpeg/FFMPEGUtilsbk.java
/Users/lijunjie/KadanLAB/ils-video-streaming/recorderondemand/src/main/java/com/ilabservice/darwinrecorder/hlslive/entity/Max.java
/Users/lijunjie/KadanLAB/ils-video-streaming/recorderondemand/src/main/java/com/ilabservice/darwinrecorder/hlslive/entity/MQTTEnvelope.java
/Users/lijunjie/KadanLAB/ils-video-streaming/recorderondemand/src/main/java/com/ilabservice/darwinrecorder/hlslive/entity/RTMP.java
